<svg xmlns="http://www.w3.org/2000/svg" viewBox="0 0 35.625 35.625" height="24" width="24">
 <path d="m 18.609 5.943 c -0.64 -0.019 -0.769 0.004 -0.954 0.169 -0.302 0.264 -0.286 0.832 0.027 1.073 0.169 0.126 0.298 0.153 1.044 0.195 2.206 0.126 3.889 0.709 5.518 1.905 1.954 1.43 3.179 3.423 3.642 5.918 0.118 0.636 0.177 1.169 0.216 1.993 0.024 0.537 0.043 0.655 0.114 0.793 0.224 0.418 0.879 0.479 1.177 0.107 0.157 -0.192 0.177 -0.341 0.149 -1.012 c -0.075 -1.966 -0.51 -3.752 -1.275 -5.255 -0.549 -1.077 -1.067 -1.771 -2 -2.687 -0.997 -0.97 -1.75 -1.503 -2.928 -2.066 -1.197 -0.571 -2.288 -0.889 -3.638 -1.054 -0.267 -0.031 -0.757 -0.069 -1.091 -0.08" style="fill:#ececec;fill-opacity:1;stroke:none"/>
 <path d="m 9.748 6.349 c -0.373 0.077 -0.84 0.349 -1.852 1.085 -0.608 0.445 -1.444 1.242 -1.64 1.564 -0.455 0.763 -0.428 1.411 0.126 2.902 0.95 2.557 2.339 5.02 4.164 7.398 3.493 4.55 7.892 7.861 13.402 10.08 0.702 0.284 0.93 0.33 1.48 0.303 0.667 -0.031 1.173 -0.234 1.888 -0.763 0.789 -0.586 1.919 -1.959 2.209 -2.691 0.275 -0.694 0.204 -1.322 -0.204 -1.813 -0.232 -0.272 -1.943 -1.637 -2.743 -2.185 -0.608 -0.414 -1.55 -0.985 -1.982 -1.204 -0.569 -0.284 -1.134 -0.333 -1.688 -0.149 -0.436 0.146 -0.581 0.272 -1.217 1.054 -0.33 0.399 -0.632 0.759 -0.671 0.793 -0.043 0.035 -0.181 0.111 -0.31 0.169 -0.514 0.234 -1.217 0.092 -2.366 -0.468 -0.895 -0.433 -1.688 -0.981 -2.586 -1.786 -0.765 -0.682 -1.538 -1.572 -1.97 -2.265 -0.557 -0.893 -0.981 -2.054 -0.985 -2.695 0 -0.276 0.114 -0.667 0.255 -0.866 0.055 -0.08 0.404 -0.383 0.777 -0.678 0.93 -0.732 1.138 -0.962 1.264 -1.399 0.122 -0.406 -0.008 -0.954 -0.396 -1.694 c -0.679 -1.296 -2.755 -3.89 -3.501 -4.373 -0.122 -0.077 -0.334 -0.184 -0.471 -0.23 -0.283 -0.1 -0.726 -0.142 -0.981 -0.088" style="fill:#ececec;fill-opacity:1;stroke:none"/>
 <path d="m 18.515 9.02 c -0.188 0.28 -0.165 0.617 0.059 0.866 0.145 0.165 0.357 0.241 0.742 0.272 1.064 0.084 2.229 0.425 3.02 0.885 0.918 0.533 1.672 1.299 2.19 2.227 0.455 0.813 0.718 1.859 0.718 2.852 0 0.644 0.09 0.882 0.392 1.031 0.181 0.092 0.506 0.1 0.659 0.023 0.141 -0.073 0.306 -0.249 0.357 -0.379 0.055 -0.138 0.055 -0.97 0.004 -1.426 -0.145 -1.246 -0.569 -2.407 -1.248 -3.396 -1.209 -1.756 -3.053 -2.836 -5.435 -3.178 -0.938 -0.138 -1.252 -0.088 -1.456 0.222 z" style="fill:#ececec;opacity:0.4;fill-opacity:1;stroke:none"/>
 <path d="m 20.14 11.616 c -0.33 -0.019 -0.392 -0.011 -0.542 0.061 -0.396 0.199 -0.506 0.74 -0.22 1.073 0.157 0.18 0.302 0.234 0.785 0.291 1.028 0.123 1.636 0.498 1.982 1.223 0.161 0.341 0.255 0.709 0.306 1.234 0.043 0.395 0.102 0.54 0.29 0.678 0.259 0.195 0.687 0.188 0.918 -0.019 0.247 -0.222 0.29 -0.491 0.184 -1.173 -0.157 -1.046 -0.514 -1.775 -1.166 -2.376 -0.506 -0.464 -1.099 -0.751 -1.872 -0.912 -0.161 -0.034 -0.463 -0.069 -0.667 -0.08 z" style="fill:#ececec;opacity:0.4;fill-opacity:1;stroke:none"/>
</svg>
